io\github\benas\websocket\server\ServerEndpoint.class
io\github\benas\websocket\model\Message.class
io\github\benas\websocket\util\JsonUtil.class
io\github\benas\websocket\model\MessageEncoder.class
io\github\benas\websocket\server\Server.class
io\github\benas\websocket\client\Client.class
io\github\benas\websocket\model\MessageDecoder.class
io\github\benas\websocket\client\ClientEndpoint.class
